{
    "data": [
        {
            "id": 5312127,
            "startDate": "2021-03-02T00:00:00",
            "startTime": 800,
            "startDatetime": "2021-03-02T08:00:00",
            "duration": 60,
            "endDate": "2021-03-02T00:00:00",
            "endTime": 900,
            "endDatetime": "2021-03-02T09:00:00",
            "standardPrice": 85.0,
            "promotionalPrice": 75.0,
            "priceId": "xMl0dvjx0ev/J3pxerYUKeluCnqDTDhW8ESCcLCZKBg="
        },
        {
            "id": 5312128,
            "startDate": "2021-03-02T00:00:00",
            "startTime": 900,
            "startDatetime": "2021-03-02T09:00:00",
            "duration": 60,
            "endDate": "2021-03-02T00:00:00",
            "endTime": 1000,
            "endDatetime": "2021-03-02T10:00:00",
            "standardPrice": 105.0,
            "promotionalPrice": 105.0,
            "priceId": "PVYRnLrVv5tY94eMUs70D87T0SR+j0F5QlCCxBPONK4="
        },
        {
            "id": 5312129,
            "startDate": "2021-03-02T00:00:00",
            "startTime": 1000,
            "startDatetime": "2021-03-02T10:00:00",
            "duration": 60,
            "endDate": "2021-03-02T00:00:00",
            "endTime": 1100,
            "endDatetime": "2021-03-02T11:00:00",
            "standardPrice": 75.0,
            "promotionalPrice": 75.0,
            "priceId": "SVVdy5EWLFIIubzFjnyIMXyjhWpP8cy2FwT8KUbmzyw="
        },
        {
            "id": 5312131,
            "startDate": "2021-03-02T00:00:00",
            "startTime": 1200,
            "startDatetime": "2021-03-02T12:00:00",
            "duration": 60,
            "endDate": "2021-03-02T00:00:00",
            "endTime": 1300,
            "endDatetime": "2021-03-02T13:00:00",
            "standardPrice": 105.0,
            "promotionalPrice": 105.0,
            "priceId": "1dRdHII3sPObnjcqSjvXL2KSMfuicPQUirzgamH5Soo="
        },
        {
            "id": 5312132,
            "startDate": "2021-03-02T00:00:00",
            "startTime": 1300,
            "startDatetime": "2021-03-02T13:00:00",
            "duration": 60,
            "endDate": "2021-03-02T00:00:00",
            "endTime": 1400,
            "endDatetime": "2021-03-02T14:00:00",
            "standardPrice": 105.0,
            "promotionalPrice": 105.0,
            "priceId": "n8CaI1UkF2qVWB6YI1kSx3Vro6ad0wRobOE2ygiYCcM="
        },
        {
            "id": 5312133,
            "startDate": "2021-03-02T00:00:00",
            "startTime": 1400,
            "startDatetime": "2021-03-02T14:00:00",
            "duration": 60,
            "endDate": "2021-03-02T00:00:00",
            "endTime": 1500,
            "endDatetime": "2021-03-02T15:00:00",
            "standardPrice": 105.0,
            "promotionalPrice": 105.0,
            "priceId": "6+naSAXYHP3ubAtiKJvQjDl+418yX43dXDAvyJSmPP4="
        },
        {
            "id": 5312134,
            "startDate": "2021-03-02T00:00:00",
            "startTime": 1500,
            "startDatetime": "2021-03-02T15:00:00",
            "duration": 60,
            "endDate": "2021-03-02T00:00:00",
            "endTime": 1600,
            "endDatetime": "2021-03-02T16:00:00",
            "standardPrice": 105.0,
            "promotionalPrice": 105.0,
            "priceId": "AKGJKwVET0Ct5jBOrkqlgTStfuh725ZMyd5hFYc4GtE="
        },
        {
            "id": 5312135,
            "startDate": "2021-03-02T00:00:00",
            "startTime": 1600,
            "startDatetime": "2021-03-02T16:00:00",
            "duration": 60,
            "endDate": "2021-03-02T00:00:00",
            "endTime": 1700,
            "endDatetime": "2021-03-02T17:00:00",
            "standardPrice": 105.0,
            "promotionalPrice": 105.0,
            "priceId": "wBa8BFGZr+Sb2+CpHELM+VUNZNlAPdIcnqiQzhPIKfQ="
        },
        {
            "id": 5312136,
            "startDate": "2021-03-02T00:00:00",
            "startTime": 1700,
            "startDatetime": "2021-03-02T17:00:00",
            "duration": 60,
            "endDate": "2021-03-02T00:00:00",
            "endTime": 1800,
            "endDatetime": "2021-03-02T18:00:00",
            "standardPrice": 105.0,
            "promotionalPrice": 105.0,
            "priceId": "62ARww257GovEquKo6oS4ISSr4eneWHnkhRYela7yx4="
        },
        {
            "id": 5312138,
            "startDate": "2021-03-02T00:00:00",
            "startTime": 1900,
            "startDatetime": "2021-03-02T19:00:00",
            "duration": 60,
            "endDate": "2021-03-02T00:00:00",
            "endTime": 2000,
            "endDatetime": "2021-03-02T20:00:00",
            "standardPrice": 105.0,
            "promotionalPrice": 105.0,
            "priceId": "e4HOwtBtBT5yi9d3nZ8j9NpsFO9V17s82UqI1lab668="
        },
        {
            "id": 5312139,
            "startDate": "2021-03-02T00:00:00",
            "startTime": 2000,
            "startDatetime": "2021-03-02T20:00:00",
            "duration": 60,
            "endDate": "2021-03-02T00:00:00",
            "endTime": 2100,
            "endDatetime": "2021-03-02T21:00:00",
            "standardPrice": 105.0,
            "promotionalPrice": 105.0,
            "priceId": "/dDS+6vjHV1+Jte/lhC8lZR5uQd8UQv1lFZV21xtqYs="
        },
        {
            "id": 5312140,
            "startDate": "2021-03-02T00:00:00",
            "startTime": 2100,
            "startDatetime": "2021-03-02T21:00:00",
            "duration": 60,
            "endDate": "2021-03-02T00:00:00",
            "endTime": 2200,
            "endDatetime": "2021-03-02T22:00:00",
            "standardPrice": 105.0,
            "promotionalPrice": 105.0,
            "priceId": "W1lxQPdSaw6hRL7SVkN7kvzlXgObcaWoQJR0jZDgs+w="
        },
        {
            "id": 5312204,
            "startDate": "2021-03-03T00:00:00",
            "startTime": 800,
            "startDatetime": "2021-03-03T08:00:00",
            "duration": 60,
            "endDate": "2021-03-03T00:00:00",
            "endTime": 900,
            "endDatetime": "2021-03-03T09:00:00",
            "standardPrice": 105.0,
            "promotionalPrice": 105.0,
            "priceId": "zB1l4VoXqak8Dn6DTXYeMErUz+wz945tlktqoJpl+As="
        },
        {
            "id": 5312205,
            "startDate": "2021-03-03T00:00:00",
            "startTime": 900,
            "startDatetime": "2021-03-03T09:00:00",
            "duration": 60,
            "endDate": "2021-03-03T00:00:00",
            "endTime": 1000,
            "endDatetime": "2021-03-03T10:00:00",
            "standardPrice": 105.0,
            "promotionalPrice": 105.0,
            "priceId": "0zkFug6K3AZLEF2JkQtAVdBH09ZhslO5TSre/DgL/NA="
        },
        {
            "id": 5312206,
            "startDate": "2021-03-03T00:00:00",
            "startTime": 1000,
            "startDatetime": "2021-03-03T10:00:00",
            "duration": 60,
            "endDate": "2021-03-03T00:00:00",
            "endTime": 1100,
            "endDatetime": "2021-03-03T11:00:00",
            "standardPrice": 105.0,
            "promotionalPrice": 105.0,
            "priceId": "U8KWKqlPcNK9kj/vNkpBr9Chw4V+VgZWvo4ZG3MaU+I="
        },
        {
            "id": 5312208,
            "startDate": "2021-03-03T00:00:00",
            "startTime": 1200,
            "startDatetime": "2021-03-03T12:00:00",
            "duration": 60,
            "endDate": "2021-03-03T00:00:00",
            "endTime": 1300,
            "endDatetime": "2021-03-03T13:00:00",
            "standardPrice": 105.0,
            "promotionalPrice": 105.0,
            "priceId": "D26imNzfi8Y7TUhZpi/3RzrKNVCQHAW8QXjzffvcMig="
        },
        {
            "id": 5312209,
            "startDate": "2021-03-03T00:00:00",
            "startTime": 1300,
            "startDatetime": "2021-03-03T13:00:00",
            "duration": 60,
            "endDate": "2021-03-03T00:00:00",
            "endTime": 1400,
            "endDatetime": "2021-03-03T14:00:00",
            "standardPrice": 105.0,
            "promotionalPrice": 105.0,
            "priceId": "plfnGpS9/O0s5dC84gACmaXRnOiVjbxJIG4RjmGbpxM="
        },
        {
            "id": 5312210,
            "startDate": "2021-03-03T00:00:00",
            "startTime": 1400,
            "startDatetime": "2021-03-03T14:00:00",
            "duration": 60,
            "endDate": "2021-03-03T00:00:00",
            "endTime": 1500,
            "endDatetime": "2021-03-03T15:00:00",
            "standardPrice": 105.0,
            "promotionalPrice": 105.0,
            "priceId": "GLfXfQ7azacb/vRaFSzT5nJTgzNIU4IHF++87cjWWs0="
        },
        {
            "id": 5312211,
            "startDate": "2021-03-03T00:00:00",
            "startTime": 1500,
            "startDatetime": "2021-03-03T15:00:00",
            "duration": 60,
            "endDate": "2021-03-03T00:00:00",
            "endTime": 1600,
            "endDatetime": "2021-03-03T16:00:00",
            "standardPrice": 105.0,
            "promotionalPrice": 105.0,
            "priceId": "Y2et7gdkFb7NSSUsiQodDPQuCnqpOc2/44ICB7fz4AM="
        },
        {
            "id": 5312212,
            "startDate": "2021-03-03T00:00:00",
            "startTime": 1600,
            "startDatetime": "2021-03-03T16:00:00",
            "duration": 60,
            "endDate": "2021-03-03T00:00:00",
            "endTime": 1700,
            "endDatetime": "2021-03-03T17:00:00",
            "standardPrice": 105.0,
            "promotionalPrice": 105.0,
            "priceId": "WpPHJnpRO4ImR+zXj9TzNz8PMdMUArDQKW9Qcask+pk="
        },
        {
            "id": 5312213,
            "startDate": "2021-03-03T00:00:00",
            "startTime": 1700,
            "startDatetime": "2021-03-03T17:00:00",
            "duration": 60,
            "endDate": "2021-03-03T00:00:00",
            "endTime": 1800,
            "endDatetime": "2021-03-03T18:00:00",
            "standardPrice": 105.0,
            "promotionalPrice": 105.0,
            "priceId": "GWnCfgV9VH1S64Jp+m2QFDJgQ6bJ3BQnxkk8MscTa24="
        },
        {
            "id": 5312215,
            "startDate": "2021-03-03T00:00:00",
            "startTime": 1900,
            "startDatetime": "2021-03-03T19:00:00",
            "duration": 60,
            "endDate": "2021-03-03T00:00:00",
            "endTime": 2000,
            "endDatetime": "2021-03-03T20:00:00",
            "standardPrice": 105.0,
            "promotionalPrice": 105.0,
            "priceId": "dzzNyOAbi5XD5HaLnhM3qmuEvJYIr8cdsS8xA6At7V8="
        },
        {
            "id": 5312216,
            "startDate": "2021-03-03T00:00:00",
            "startTime": 2000,
            "startDatetime": "2021-03-03T20:00:00",
            "duration": 60,
            "endDate": "2021-03-03T00:00:00",
            "endTime": 2100,
            "endDatetime": "2021-03-03T21:00:00",
            "standardPrice": 105.0,
            "promotionalPrice": 105.0,
            "priceId": "8JNWVkfUckwTU7BH2mOacrnKN9ukmVEq9kPLOU74VVI="
        },
        {
            "id": 5312217,
            "startDate": "2021-03-03T00:00:00",
            "startTime": 2100,
            "startDatetime": "2021-03-03T21:00:00",
            "duration": 60,
            "endDate": "2021-03-03T00:00:00",
            "endTime": 2200,
            "endDatetime": "2021-03-03T22:00:00",
            "standardPrice": 105.0,
            "promotionalPrice": 105.0,
            "priceId": "B9tkgskqH0h0bC7StE6qSXQeFgrECT8cxuMg488jcME="
        },
        {
            "id": 5312279,
            "startDate": "2021-03-04T00:00:00",
            "startTime": 800,
            "startDatetime": "2021-03-04T08:00:00",
            "duration": 60,
            "endDate": "2021-03-04T00:00:00",
            "endTime": 900,
            "endDatetime": "2021-03-04T09:00:00",
            "standardPrice": 105.0,
            "promotionalPrice": 105.0,
            "priceId": "FxrdFgDgI5DiL221q7aZdrXmFvKTWhoJr0nHfxoeHOU="
        },
        {
            "id": 5312280,
            "startDate": "2021-03-04T00:00:00",
            "startTime": 900,
            "startDatetime": "2021-03-04T09:00:00",
            "duration": 60,
            "endDate": "2021-03-04T00:00:00",
            "endTime": 1000,
            "endDatetime": "2021-03-04T10:00:00",
            "standardPrice": 105.0,
            "promotionalPrice": 105.0,
            "priceId": "htN+HuPIUDNAzyojSaD3gN65RP8GsTwQ0qYS6LoHyXg="
        },
        {
            "id": 5312281,
            "startDate": "2021-03-04T00:00:00",
            "startTime": 1000,
            "startDatetime": "2021-03-04T10:00:00",
            "duration": 60,
            "endDate": "2021-03-04T00:00:00",
            "endTime": 1100,
            "endDatetime": "2021-03-04T11:00:00",
            "standardPrice": 105.0,
            "promotionalPrice": 105.0,
            "priceId": "QKFb0mKR15h/y6/vuJ3szWvsuWPT8XncDY2iVmAsnlc="
        },
        {
            "id": 5312283,
            "startDate": "2021-03-04T00:00:00",
            "startTime": 1200,
            "startDatetime": "2021-03-04T12:00:00",
            "duration": 60,
            "endDate": "2021-03-04T00:00:00",
            "endTime": 1300,
            "endDatetime": "2021-03-04T13:00:00",
            "standardPrice": 105.0,
            "promotionalPrice": 105.0,
            "priceId": "WcRm7onYlDsp/KicYkVJwRGGq7O7JEQAq0iu9BpZxn0="
        },
        {
            "id": 5312284,
            "startDate": "2021-03-04T00:00:00",
            "startTime": 1300,
            "startDatetime": "2021-03-04T13:00:00",
            "duration": 60,
            "endDate": "2021-03-04T00:00:00",
            "endTime": 1400,
            "endDatetime": "2021-03-04T14:00:00",
            "standardPrice": 105.0,
            "promotionalPrice": 105.0,
            "priceId": "4zYWZ8s50uXCd0e9zzxLph+OVBxlNzbKX+3qvdcPnNg="
        },
        {
            "id": 5312285,
            "startDate": "2021-03-04T00:00:00",
            "startTime": 1400,
            "startDatetime": "2021-03-04T14:00:00",
            "duration": 60,
            "endDate": "2021-03-04T00:00:00",
            "endTime": 1500,
            "endDatetime": "2021-03-04T15:00:00",
            "standardPrice": 105.0,
            "promotionalPrice": 105.0,
            "priceId": "ByTmJ0iLVJXXZh6kKXQ/P5Hx5FjKyabLYpPPdfz9SzM="
        }
    ],
    "context": {
        "page": 1,
        "size": 30,
        "pages": 13,
        "totalRows": 362
    }
}